[2023-05-21 09:01:12] [0281a11d] plugin.point.INFO: save start [] {"process_id":86281,"url":"/shopping/payment","ip":"126.193.35.160","http_method":"POST","server":"biken-shop-mall.com","referrer":"https://biken-shop-mall.com/shopping","unique_id":"ZGlfSCC0Tbw42VMd5UKTSQAAAV4","class":"Plugin\\Point\\Event\\WorkPlace\\FrontChangeTotal","function":"save","line":34}
[2023-05-21 09:01:12] [0281a11d] plugin.point.INFO: calculateTotalDiscountOnChangeConditions start [] {"process_id":86281,"url":"/shopping/payment","ip":"126.193.35.160","http_method":"POST","server":"biken-shop-mall.com","referrer":"https://biken-shop-mall.com/shopping","unique_id":"ZGlfSCC0Tbw42VMd5UKTSQAAAV4","class":"Plugin\\Point\\Helper\\PointCalculateHelper\\PointCalculateHelper","function":"calculateTotalDiscountOnChangeConditions","line":515}
[2023-05-21 09:01:12] [0281a11d] plugin.point.INFO: save end [] {"process_id":86281,"url":"/shopping/payment","ip":"126.193.35.160","http_method":"POST","server":"biken-shop-mall.com","referrer":"https://biken-shop-mall.com/shopping","unique_id":"ZGlfSCC0Tbw42VMd5UKTSQAAAV4","class":"Plugin\\Point\\Event\\WorkPlace\\FrontChangeTotal","function":"save","line":53}
[2023-05-21 09:01:50] [0281a11d] plugin.point.INFO: save start(savefrompayment) [] {"process_id":86463,"url":"/shopping/epsilon_payment/complete?trans_code=291901958&user_id=694&result=1&order_number=2218","ip":"126.193.35.160","http_method":"GET","server":"biken-shop-mall.com","referrer":"https://secure.epsilon.jp/","unique_id":"ZGlfbSC0Tbw42VMd5UKT3AAAARQ","class":"Plugin\\Point\\Event\\WorkPlace\\FrontShoppingComplete","function":"savefrompayment","line":119}
[2023-05-21 09:01:50] [0281a11d] plugin.point.INFO: save add point(savefrompayment) {"customer_id":694,"order_id":2218,"current point":60,"add point":60,"use point":0} {"process_id":86463,"url":"/shopping/epsilon_payment/complete?trans_code=291901958&user_id=694&result=1&order_number=2218","ip":"126.193.35.160","http_method":"GET","server":"biken-shop-mall.com","referrer":"https://secure.epsilon.jp/","unique_id":"ZGlfbSC0Tbw42VMd5UKT3AAAARQ","class":"Plugin\\Point\\Event\\WorkPlace\\FrontShoppingComplete","function":"savefrompayment","line":169}
[2023-05-21 09:01:50] [0281a11d] plugin.point.INFO: ポイント保存用変数作成(savefrompayment) >>>  {"current":60,"use":0,"add":60} {"process_id":86463,"url":"/shopping/epsilon_payment/complete?trans_code=291901958&user_id=694&result=1&order_number=2218","ip":"126.193.35.160","http_method":"GET","server":"biken-shop-mall.com","referrer":"https://secure.epsilon.jp/","unique_id":"ZGlfbSC0Tbw42VMd5UKT3AAAARQ","class":"Plugin\\Point\\Event\\WorkPlace\\FrontShoppingComplete","function":"savefrompayment","line":177}
[2023-05-21 09:01:50] [0281a11d] plugin.point.INFO: save end(savefrompayment) [] {"process_id":86463,"url":"/shopping/epsilon_payment/complete?trans_code=291901958&user_id=694&result=1&order_number=2218","ip":"126.193.35.160","http_method":"GET","server":"biken-shop-mall.com","referrer":"https://secure.epsilon.jp/","unique_id":"ZGlfbSC0Tbw42VMd5UKT3AAAARQ","class":"Plugin\\Point\\Event\\WorkPlace\\FrontShoppingComplete","function":"savefrompayment","line":183}
[2023-05-21 09:01:51] [0281a11d] plugin.point.INFO: save start(Service Mail) [] {"process_id":86463,"url":"/shopping/epsilon_payment/complete?trans_code=291901958&user_id=694&result=1&order_number=2218","ip":"126.193.35.160","http_method":"GET","server":"biken-shop-mall.com","referrer":"https://secure.epsilon.jp/","unique_id":"ZGlfbSC0Tbw42VMd5UKT3AAAARQ","class":"Plugin\\Point\\Event\\WorkPlace\\ServiceMail","function":"save","line":37}
[2023-05-21 09:01:51] [0281a11d] plugin.point.INFO: save add point(Service Mail) {"customer_id":694,"order_id":2218,"add point":60,"use point":0} {"process_id":86463,"url":"/shopping/epsilon_payment/complete?trans_code=291901958&user_id=694&result=1&order_number=2218","ip":"126.193.35.160","http_method":"GET","server":"biken-shop-mall.com","referrer":"https://secure.epsilon.jp/","unique_id":"ZGlfbSC0Tbw42VMd5UKT3AAAARQ","class":"Plugin\\Point\\Event\\WorkPlace\\ServiceMail","function":"save","line":73}
[2023-05-21 09:01:51] [0281a11d] plugin.point.INFO: save end(Service Mail) [] {"process_id":86463,"url":"/shopping/epsilon_payment/complete?trans_code=291901958&user_id=694&result=1&order_number=2218","ip":"126.193.35.160","http_method":"GET","server":"biken-shop-mall.com","referrer":"https://secure.epsilon.jp/","unique_id":"ZGlfbSC0Tbw42VMd5UKT3AAAARQ","class":"Plugin\\Point\\Event\\WorkPlace\\ServiceMail","function":"save","line":100}
[2023-05-21 10:20:12] [24939bbb] plugin.point.INFO: save start [] {"process_id":33917,"url":"/shopping/payment","ip":"1.73.153.150","http_method":"POST","server":"biken-shop-mall.com","referrer":"https://biken-shop-mall.com/shopping","unique_id":"ZGlxzCC0Tbw42VMd5UKjGQAAATA","class":"Plugin\\Point\\Event\\WorkPlace\\FrontChangeTotal","function":"save","line":34}
[2023-05-21 10:20:12] [24939bbb] plugin.point.INFO: calculateTotalDiscountOnChangeConditions start [] {"process_id":33917,"url":"/shopping/payment","ip":"1.73.153.150","http_method":"POST","server":"biken-shop-mall.com","referrer":"https://biken-shop-mall.com/shopping","unique_id":"ZGlxzCC0Tbw42VMd5UKjGQAAATA","class":"Plugin\\Point\\Helper\\PointCalculateHelper\\PointCalculateHelper","function":"calculateTotalDiscountOnChangeConditions","line":515}
[2023-05-21 10:20:12] [24939bbb] plugin.point.INFO: save end [] {"process_id":33917,"url":"/shopping/payment","ip":"1.73.153.150","http_method":"POST","server":"biken-shop-mall.com","referrer":"https://biken-shop-mall.com/shopping","unique_id":"ZGlxzCC0Tbw42VMd5UKjGQAAATA","class":"Plugin\\Point\\Event\\WorkPlace\\FrontChangeTotal","function":"save","line":53}
[2023-05-21 10:25:08] [24939bbb] plugin.point.INFO: save start(savefrompayment) [] {"process_id":48095,"url":"/shopping/epsilon_payment/complete?trans_code=291909823&user_id=486&result=1&order_number=2220","ip":"1.73.153.150","http_method":"GET","server":"biken-shop-mall.com","referrer":"https://biken-shop-mall.com/shopping","unique_id":"ZGly9CC0Tbw42VMd5UKkCQAAAVA","class":"Plugin\\Point\\Event\\WorkPlace\\FrontShoppingComplete","function":"savefrompayment","line":119}
[2023-05-21 10:25:08] [24939bbb] plugin.point.INFO: save add point(savefrompayment) {"customer_id":486,"order_id":2220,"current point":670,"add point":625,"use point":0} {"process_id":48095,"url":"/shopping/epsilon_payment/complete?trans_code=291909823&user_id=486&result=1&order_number=2220","ip":"1.73.153.150","http_method":"GET","server":"biken-shop-mall.com","referrer":"https://biken-shop-mall.com/shopping","unique_id":"ZGly9CC0Tbw42VMd5UKkCQAAAVA","class":"Plugin\\Point\\Event\\WorkPlace\\FrontShoppingComplete","function":"savefrompayment","line":169}
[2023-05-21 10:25:08] [24939bbb] plugin.point.INFO: ポイント保存用変数作成(savefrompayment) >>>  {"current":670,"use":0,"add":625} {"process_id":48095,"url":"/shopping/epsilon_payment/complete?trans_code=291909823&user_id=486&result=1&order_number=2220","ip":"1.73.153.150","http_method":"GET","server":"biken-shop-mall.com","referrer":"https://biken-shop-mall.com/shopping","unique_id":"ZGly9CC0Tbw42VMd5UKkCQAAAVA","class":"Plugin\\Point\\Event\\WorkPlace\\FrontShoppingComplete","function":"savefrompayment","line":177}
[2023-05-21 10:25:08] [24939bbb] plugin.point.INFO: save end(savefrompayment) [] {"process_id":48095,"url":"/shopping/epsilon_payment/complete?trans_code=291909823&user_id=486&result=1&order_number=2220","ip":"1.73.153.150","http_method":"GET","server":"biken-shop-mall.com","referrer":"https://biken-shop-mall.com/shopping","unique_id":"ZGly9CC0Tbw42VMd5UKkCQAAAVA","class":"Plugin\\Point\\Event\\WorkPlace\\FrontShoppingComplete","function":"savefrompayment","line":183}
[2023-05-21 10:25:08] [24939bbb] plugin.point.INFO: save start(Service Mail) [] {"process_id":48095,"url":"/shopping/epsilon_payment/complete?trans_code=291909823&user_id=486&result=1&order_number=2220","ip":"1.73.153.150","http_method":"GET","server":"biken-shop-mall.com","referrer":"https://biken-shop-mall.com/shopping","unique_id":"ZGly9CC0Tbw42VMd5UKkCQAAAVA","class":"Plugin\\Point\\Event\\WorkPlace\\ServiceMail","function":"save","line":37}
[2023-05-21 10:25:08] [24939bbb] plugin.point.INFO: save add point(Service Mail) {"customer_id":486,"order_id":2220,"add point":625,"use point":0} {"process_id":48095,"url":"/shopping/epsilon_payment/complete?trans_code=291909823&user_id=486&result=1&order_number=2220","ip":"1.73.153.150","http_method":"GET","server":"biken-shop-mall.com","referrer":"https://biken-shop-mall.com/shopping","unique_id":"ZGly9CC0Tbw42VMd5UKkCQAAAVA","class":"Plugin\\Point\\Event\\WorkPlace\\ServiceMail","function":"save","line":73}
[2023-05-21 10:25:08] [24939bbb] plugin.point.INFO: save end(Service Mail) [] {"process_id":48095,"url":"/shopping/epsilon_payment/complete?trans_code=291909823&user_id=486&result=1&order_number=2220","ip":"1.73.153.150","http_method":"GET","server":"biken-shop-mall.com","referrer":"https://biken-shop-mall.com/shopping","unique_id":"ZGly9CC0Tbw42VMd5UKkCQAAAVA","class":"Plugin\\Point\\Event\\WorkPlace\\ServiceMail","function":"save","line":100}
