[2023-06-09 23:11:11] [fb611180] plugin.point.INFO: save start [] {"process_id":96681,"url":"/bkadmin/product/product/66/edit","ip":"180.200.61.73","http_method":"POST","server":"biken-shop-mall.com","referrer":"https://biken-shop-mall.com/bkadmin/product/product/66/edit","unique_id":"ZIMy_2irg8rArB51gQzbFwAAAQ4","class":"Plugin\\Point\\Event\\WorkPlace\\AdminProduct","function":"save","line":81}
[2023-06-09 23:11:11] [fb611180] plugin.point.INFO: save add product point {"product_id":66,"status":true,"add point":"100"} {"process_id":96681,"url":"/bkadmin/product/product/66/edit","ip":"180.200.61.73","http_method":"POST","server":"biken-shop-mall.com","referrer":"https://biken-shop-mall.com/bkadmin/product/product/66/edit","unique_id":"ZIMy_2irg8rArB51gQzbFwAAAQ4","class":"Plugin\\Point\\Event\\WorkPlace\\AdminProduct","function":"save","line":98}
[2023-06-09 23:14:30] [fb611180] plugin.point.INFO: save start [] {"process_id":9017,"url":"/bkadmin/product/product/66/edit","ip":"180.200.61.73","http_method":"POST","server":"biken-shop-mall.com","referrer":"https://biken-shop-mall.com/bkadmin/product/product/66/edit","unique_id":"ZIMzxmirg8rArB51gQzcKQAAAU4","class":"Plugin\\Point\\Event\\WorkPlace\\AdminProduct","function":"save","line":81}
[2023-06-09 23:14:30] [fb611180] plugin.point.INFO: save add product point {"product_id":66,"status":true,"add point":"100"} {"process_id":9017,"url":"/bkadmin/product/product/66/edit","ip":"180.200.61.73","http_method":"POST","server":"biken-shop-mall.com","referrer":"https://biken-shop-mall.com/bkadmin/product/product/66/edit","unique_id":"ZIMzxmirg8rArB51gQzcKQAAAU4","class":"Plugin\\Point\\Event\\WorkPlace\\AdminProduct","function":"save","line":98}
